{
  "project_info": {
    "project_number": "370144480261",
    "project_id": "newsapp2021-a75fd",
    "storage_bucket": "newsapp2021-a75fd.appspot.com"
  },
  "client": [
    {
      "client_info": {
        "mobilesdk_app_id": "1:370144480261:android:50bb011dce0fe9e9b1606c",
        "android_client_info": {
          "package_name": "com.omar.logintask"
        }
      },
      "oauth_client": [
        {
          "client_id": "370144480261-s82p5rj7dfih4b44gijbkpbccme1hmeh.apps.googleusercontent.com",
          "client_type": 1,
          "android_info": {
            "package_name": "com.omar.logintask",
            "certificate_hash": "86c21fc5d857bdd0de1e1d089c0fd9b318cf8e69"
          }
        },
        {
          "client_id": "370144480261-kkcn09egi84ocij0cpe2fictmhas3jp3.apps.googleusercontent.com",
          "client_type": 3
        }
      ],
      "api_key": [
        {
          "current_key": "AIzaSyAjABc35w_gM7wME7n18VtuWSv8kwKQFB4"
        }
      ],
      "services": {
        "appinvite_service": {
          "other_platform_oauth_client": [
            {
              "client_id": "370144480261-kkcn09egi84ocij0cpe2fictmhas3jp3.apps.googleusercontent.com",
              "client_type": 3
            }
          ]
        }
      }
    }
  ],
  "configuration_version": "1"
}